{
    "page": 2,
    "per_page": 3,
    "total": 12,
    "total_pages": 4,
    "data": [
        {
            "id": 4,
            "first_name": "Eve",
            "last_name": "Holt",
            "avatar": "https://s3.amazonaws.com/uifaces/faces/twitter/marcoramires/128.jpg"
        },
        {
            "id": 5,
            "first_name": "Charles",
            "last_name": "Morris",
            "avatar": "https://s3.amazonaws.com/uifaces/faces/twitter/stephenmoon/128.jpg"
        },
        {
            "id": 6,
            "first_name": "Tracey",
            "last_name": "Ramos",
            "avatar": "https://s3.amazonaws.com/uifaces/faces/twitter/bigmancho/128.jpg"
        }
    ]
}
***************************************************************
1. $.data[0,1]
[
   {
      "id":4,
      "first_name":"Eve",
      "last_name":"Holt",
      "avatar":"https://s3.amazonaws.com/uifaces/faces/twitter/marcoramires/128.jpg"
   },
   {
      "id":5,
      "first_name":"Charles",
      "last_name":"Morris",
      "avatar":"https://s3.amazonaws.com/uifaces/faces/twitter/stephenmoon/128.jpg"
   }
]
*******************************************
2.  $.data[?(@.id>5)]
[
   {
      "id":6,
      "first_name":"Tracey",
      "last_name":"Ramos",
      "avatar":"https://s3.amazonaws.com/uifaces/faces/twitter/bigmancho/128.jpg"
   }
]
*********************************************
3. $.data[?(@.id="5")]
[
   {
      "id":5,
      "first_name":"Charles",
      "last_name":"Morris",
      "avatar":"https://s3.amazonaws.com/uifaces/faces/twitter/stephenmoon/128.jpg"
   }
]
*********************************************
4.  $.data[?(@.first_name="Eve")]
[
   {
      "id":4,
      "first_name":"Eve",
      "last_name":"Holt",
      "avatar":"https://s3.amazonaws.com/uifaces/faces/twitter/marcoramires/128.jpg"
   }
]
*********************************************
5.$.data[?(@.avatar)]
[
   {
      "id":4,
      "first_name":"Eve",
      "last_name":"Holt",
      "avatar":"https://s3.amazonaws.com/uifaces/faces/twitter/marcoramires/128.jpg"
   },
   {
      "id":5,
      "first_name":"Charles",
      "last_name":"Morris",
      "avatar":"https://s3.amazonaws.com/uifaces/faces/twitter/stephenmoon/128.jpg"
   },
   {
      "id":6,
      "first_name":"Tracey",
      "last_name":"Ramos",
      "avatar":"https://s3.amazonaws.com/uifaces/faces/twitter/bigmancho/128.jpg"
   }
]
**************************************************
6.$.data[1:]
[
   {
      "id":5,
      "first_name":"Charles",
      "last_name":"Morris",
      "avatar":"https://s3.amazonaws.com/uifaces/faces/twitter/stephenmoon/128.jpg"
   },
   {
      "id":6,
      "first_name":"Tracey",
      "last_name":"Ramos",
      "avatar":"https://s3.amazonaws.com/uifaces/faces/twitter/bigmancho/128.jpg"
   }
]
***************************************************
7. $.data[-2:]
[
   {
      "id":5,
      "first_name":"Charles",
      "last_name":"Morris",
      "avatar":"https://s3.amazonaws.com/uifaces/faces/twitter/stephenmoon/128.jpg"
   },
   {
      "id":6,
      "first_name":"Tracey",
      "last_name":"Ramos",
      "avatar":"https://s3.amazonaws.com/uifaces/faces/twitter/bigmancho/128.jpg"
   }
]
*****************************************************
8. $.data[0].first_name
[
   "Eve"
]
****************************************************
9.  $.data[0]
[
   {
      "id":4,
      "first_name":"Eve",
      "last_name":"Holt",
      "avatar":"https://s3.amazonaws.com/uifaces/faces/twitter/marcoramires/128.jpg"
   }
]
******************************************************
10 $.data.*
[
   {
      "id":4,
      "first_name":"Eve",
      "last_name":"Holt",
      "avatar":"https://s3.amazonaws.com/uifaces/faces/twitter/marcoramires/128.jpg"
   },
   {
      "id":5,
      "first_name":"Charles",
      "last_name":"Morris",
      "avatar":"https://s3.amazonaws.com/uifaces/faces/twitter/stephenmoon/128.jpg"
   },
   {
      "id":6,
      "first_name":"Tracey",
      "last_name":"Ramos",
      "avatar":"https://s3.amazonaws.com/uifaces/faces/twitter/bigmancho/128.jpg"
   }
]
********************************************************
